﻿Classification;Colour;Species;H42_2019-03-28;H42_2019-04-15;H42_2019-05-14;H42_2019-06-25;H42_2019-07-12;H42_2019-08-12;H42_2019-09-10;H42_2019-10-09;H42_2019-11-06;H42_2019-12-04;H42_2020-01-08;H42_2020-02-05;H42_2020-03-04
Labyrinthulomycetes;tomato3;Amphifilidae_sp._1;0.00031443;0;0.004651324;0;0;0;0;0;0.000255652;0;0;0.000376159;0
Labyrinthulomycetes;tomato3;Amphifilidae_sp._2;8.98E-05;0;0.000971918;0;0;0;0;0;0;8.60E-05;0.000115266;0.000142681;0.000290546
Labyrinthulomycetes;tomato3;Amphifilidae_sp._3;0;0.000136268;0;0;0;0;0;0;0;0.000300965;0;0;0.000464873
Labyrinthulomycetes;tomato3;Amphifilidae_sp._4;0;0;0;0;0;0;0;0;0;0;0;0;0
Bacillariophyta;olivedrab3;Brockmanniella brockmannii;0;0.002776453;0.002950467;0.007164059;0;0.004690928;0.005268867;0.000676868;0.00175304;0;0;0;0
Bacillariophyta;olivedrab3;Chaetoceros_brevis;0;0;0;0;0.000438404;0.008814406;0;0.000435129;0.000766955;0;8.97E-05;0;0
Bacillariophyta;olivedrab3;Chaetoceros_constrictus;0;0;0.000971918;0;0;0;0;0;0;0;0;0;0
Bacillariophyta;olivedrab3;Chaetoceros_contortus;0;0;0;0;0;0.001286222;0;0;0;0;0;0;0
Bacillariophyta;olivedrab3;Chaetoceros_costatus;0;0;0;0;0;0;0;0.00106365;0;0;0;0;0
Bacillariophyta;olivedrab3;Chaetoceros_curvisetus;0;0;0;0;0.000263043;0.015472498;0;0;0;0;0;0;0
Bacillariophyta;olivedrab3;Chaetoceros_danicus_1;0;0;0;0;0;0.019671635;0;0;0;0;0;0;0
Bacillariophyta;olivedrab3;Chaetoceros_danicus_2;0;0;0;0.000245497;0.000438404;0.000945752;0;0;0;0;0;6.49E-05;0.000193697
Bacillariophyta;olivedrab3;Chaetoceros_debilis_2;0;0;0.000555382;0.00011159;0;0.000870092;0;0;0;0;0;0;0
Bacillariophyta;olivedrab3;Chaetoceros_debilis_1;0;0.000255502;0.000694227;0;0;0;0;0;0;0;0;0;0
Bacillariophyta;olivedrab3;Chaetoceros_decipiens_1;0;0;0;0;0.006313021;0.121888477;0.002221189;0.000459303;0.002154779;0;0;0;0
Bacillariophyta;olivedrab3;Chaetoceros_decipiens_2;0;0;0.00454719;0.002321066;0.00315651;0.041650904;0.000516556;0.001208693;0.003433038;0;0;0;0
Bacillariophyta;olivedrab3;Chaetoceros_decipiens_3;0;0;0;0.000178544;0.005962297;0.009797987;0;0;0;0;0;0;0
Bacillariophyta;olivedrab3;Chaetoceros_decipiens_4;0;0;0;0.000334769;0;0.001853673;0;0;0;0;0;0;0
Bacillariophyta;olivedrab3;Chaetoceros_decipiens_5;0;0;0;0;0;0;0;0;0;0;0;0;0
Bacillariophyta;olivedrab3;Chaetoceros_diadema;0;0.000732439;0.026588913;0.001160533;0.002279702;0.023984263;0;0;0;0;0;0;0
Bacillariophyta;olivedrab3;Chaetoceros_didymus;0;0;0.000381825;0;0;0;0;0;0;0;0;0;0
Bacillariophyta;olivedrab3;Chaetoceros_protuberans;0;0;0;0.000446359;0;0.004199137;0;0;0;0;0;0;0
Bacillariophyta;olivedrab3;Chaetoceros_pumilum;0;0;0;0.000312451;0;0.016229099;0.030166847;0.068847149;0.000292173;0.000279468;0;3.89E-05;0
Bacillariophyta;olivedrab3;Chaetoceros_sp_Clade_Na11C3;0;0;0;0.002611199;0.002805787;0.001172732;0;0;0;0;0;0;0
Bacillariophyta;olivedrab3;Chaetoceros_sp_Clade_Na13C1;0;0;0;0;0;0.000378301;0;0;0;0;0;0;0
Bacillariophyta;olivedrab3;Chaetoceros_sporotruncatus;0;0;0.000347114;0.000424041;0.043138974;0.05591284;0.0018596;0;0;0.00034396;0;0;0
Bacillariophyta;olivedrab3;Chaetoceros_tenuissimus;0;0;0;0.005557167;0.007715914;0.018612393;0.001033111;0.000241739;0;0;0;0;0
Bacillariophyta;olivedrab3;Chaetoceros_teres;0;0;0;0;0;0;0;0;0;0;0;0;0
Bacillariophyta;olivedrab3;Chaetoceros_throndsenii;0;0;0;0.000557949;0;0.003745177;0;0;0;0;0;0;0
Chytridiomycota;orchid2;Chytridiomycetes_X_sp._1;0;0;0;0.172606959;0;0;0;0;0;0;0;0;0
Chytridiomycota;orchid2;Chytridiomycetes_X_sp._2;0;0;0;0.002298748;0;0;0;0;0;0;0;0;0
Bacillariophyta;olivedrab3;Cylindrotheca_closterium;0;0;0;0.000848082;0;0.002875085;0;0;0;0;0;0;0
Bacillariophyta;olivedrab3;Dactyliosolen_blavyanus;0;0;0;0;0;0.000756601;0;0;0;0;0;0;0
Bacillariophyta;olivedrab3;Delphineis_sp.;0.000763616;0.000732439;0.00024298;0;0;0;0;0;0;0.000924393;0.000794057;0.000220507;0.000174327
Bacillariophyta;olivedrab3;Ditylum_brightwellii;0.009118473;0.002146215;0;0;0;0;0;0;0;0;0.000115266;0;0.001200922
Bacillariophyta;olivedrab3;Guinardia_delicatula;0;0.024204538;0;0.005222398;0.002893468;0.002383294;0;0.000145043;0.001497389;0.001655309;0;0;0
Bacillariophyta;olivedrab3;Guinardia_striata;0;0;0;0.001673846;0;0;0;0;0;0;0;0;0
Labyrinthulomycetes;tomato3;Labyrinthulaceae_X_sp.;0;0;0;0;0;0;0.000154967;0;0;0.002192747;7.68E-05;0;0
Bacillariophyta;olivedrab3;Lauderia_annulata;0;0;0;0;0;0;0;0.000580173;0;0;0.000499488;0;0
Bacillariophyta;olivedrab3;Leptocylindrus_minimus;0;0;0;0.000803446;0.000613766;0;0;0;0;0;0;0;0
Bacillariophyta;olivedrab3;Leptocylindrus_sp.;0;0.000221435;0;0.194344634;0.001490574;0.001172732;0;0;0;4.30E-05;0;0;0
Bacillariophyta;olivedrab3;Minidiscus_comicus;0;0.00853376;0;0;0.003331872;0.005220549;0.001188078;0;0;0.002579702;0.005097336;0.003022245;0.003564027
Bacillariophyta;olivedrab3;Minidiscus_variabilis;0.005839416;0.078898958;0.001423166;0.000513313;0.020254274;0.020087766;0.0041841;0.002054778;0.00631825;0.012597545;0.011372951;0.00437123;0.007128053
Bacillariophyta;olivedrab3;Minutocellus_polymorphus_1;0;0;0;0;0;0;0;0.006817028;0.005368686;0.001268354;0.000179303;0;0
Bacillariophyta;olivedrab3;Minutocellus_polymorphus_2;0;0;0;0;0;0.005031399;0.006663567;0.000918607;0.001132172;0;0;0;0
Bacillariophyta;olivedrab3;Navicula_sp._1;0;0;0;0;0;0;0;0;0.000584347;0;0;0;0
Bacillariophyta;olivedrab3;Navicula_sp._2;0;0;0;0;0;0;0;0;0;0;0;0;0
Bacillariophyta;olivedrab3;Navicula_sp._3;0;0;0;0;0;0;0;0;0;0.001375841;0;0;0
Bacillariophyta;olivedrab3;Nitzschia_communis;0;0;0;0;0;0;0;0;0;0;0;0;0
Bacillariophyta;olivedrab3;Odontella_sinensis;0;0.001039041;0;0;0;0;0;0;0;0;0;0;0
Bacillariophyta;olivedrab3;Pseudo-nitzschia_pseudodelicatissima;0;0;0;0.004686768;0.000789128;0.004236968;0;0.000483477;0;0;0;0;0
Bacillariophyta;olivedrab3;Rhizosolenia_delicatula;0;0;0;0.000312451;0;0;0;0;0;0.000236473;0;0;0
Bacillariophyta;olivedrab3;Rhizosolenia_setigera;0.000606401;0.000170335;0;0.000624902;0;0;0;0;0;0;0;0;0.004590621
Bacillariophyta;olivedrab3;Surirella_sp.;0.000202134;0;0;0;0.000613766;0.001551033;0;0;0;0;0.000128074;0.000194565;0
Bacillariophyta;olivedrab3;Synedra_fulgens;8.98E-05;0.000425836;0;0;0;0;0;0;0.000146087;0;0;0;0
Bacillariophyta;olivedrab3;Tabularia_tabulata;0;0;0;0;0;0;0;0;0;0;0;0;0
Bacillariophyta;olivedrab3;Thalassionema_frauenfeldii_1;0;0;0;0;0.002542744;0.003102066;0;0;0;0;0;0;0
Bacillariophyta;olivedrab3;Thalassionema_frauenfeldii_2;0;0;0;0;0;0;0;0;0;0;0;0;0
Bacillariophyta;olivedrab3;Thalassionema_frauenfeldii_3;0;0;0;0;0.001753617;0.001097072;0;0;0;0;0;0;0
Bacillariophyta;olivedrab3;Thalassiosira_concaviuscula;0;0;0;0;0;0;0;0;0;0;0;0;0.000232437
Bacillariophyta;olivedrab3;Thalassiosira_curviseriata;0.000763616;0.001584111;0;0;0;0;0;0;0;0;0;0;0
Bacillariophyta;olivedrab3;Thalassiosira_delicatula;0;0.005484772;0.00454719;0.003169148;0.004910127;0.000643111;0;0.001184519;0.007559987;0.005417374;0.00420082;0.000155652;0.000309915
Bacillariophyta;olivedrab3;Thalassiosira_minima;0.012240314;0.001175308;0.006248047;0;0.001402893;0;0;0;0;0;0.000268955;0.000194565;0.002130668
Bacillariophyta;olivedrab3;Thalassiosira_profunda_1;0.001841662;0.000902773;0.000381825;0;0;0;0;0;0;8.60E-05;0.000307377;0.000479927;0.002750499
Bacillariophyta;olivedrab3;Thalassiosira_profunda_2;0;0.000511004;0;0;0;0;0;0;0;0;0;0;0.001936971
Bacillariophyta;olivedrab3;Thalassiosira_pseudonana;0.000202134;0.005552906;0.00354056;0.011627647;0.00832968;0.005069229;0.020765535;0.032223753;0.00131478;0.002257239;0.000409836;0.000116739;0
Bacillariophyta;olivedrab3;Thalassiosira_rotula;0;0.000136268;6.94E-05;0;0.000175362;3.78E-05;0;0;0.000255652;0.000644926;0.000896516;0.000181594;0.00065857
Bacillariophyta;olivedrab3;Thalassiosira_sp.;0;0.002265449;0.000937207;0.00140603;0.008417361;0.031209806;0.0023245;0.000217565;0.008838245;0.002429219;0.002177254;0.00025942;0.001045964
Bacillariophyta;olivedrab3;Thalassiosira_tenera;0.010623245;0;0;0;0;0;0;0;0;0.00060193;0.002202869;0.001128478;0.005171712
Labyrinthulomycetes;tomato3;Thraustochytriaceae_X_sp._1;0;0;0;0;0;0;0.002737745;0;0;0.001053378;0;0;0
Labyrinthulomycetes;tomato3;Thraustochytriaceae_X_sp._2;0;0;0;0;0;0.000491791;0.0004649;0;0;0.000365458;0;0;0
Labyrinthulomycetes;tomato3;Thraustochytriaceae_X_sp._3;0;0.000272535;0;0;0;0;0;0;0;0;0;0;0
Labyrinthulomycetes;tomato3;Thraustochytriaceae_X_sp._4;0;0;0;0;0;0;0.001239733;0;0;0;0;0;0
Cercozoa;turquoise2;Botuliformidae_X_sp.;0;0.001839613;0.001319032;0.016001964;0.003244191;0;0;0.00275582;0.001643475;0.002020767;0.001255123;0.000246449;0.000193697
Cercozoa;turquoise2;CCW10-lineage_X_sp._1;0;0;0;0;0;0;0;0;0;0.000709418;0;7.78E-05;0.000484243
Cercozoa;turquoise2;CCW10-lineage_X_sp._2;0;0;0;0;0;0;0;0;0;0.000214975;0.00083248;0;0
Cercozoa;turquoise2;CCW10-lineage_X_sp._3;0;0;0;0;0;0;0;0;0;0;0;0;0
Cercozoa;turquoise2;CCW10-lineage_X_sp._4;0.000202134;0.000238468;0;0;0;0;0;0;0;0;0;0;0
Cercozoa;turquoise2;Cercozoa_XXXX_sp._1;0;0.002333583;0;0.000803446;0.005523893;0;0.000981456;0;0;0.004321001;0.001652152;0.00012971;0
Cercozoa;turquoise2;Cercozoa_XXXX_sp._2;0;0;0;0;0;0;0;0;0.003652168;0.00034396;0;0;0
Cercozoa;turquoise2;Cercozoa_XXXX_sp._3;0.001527232;0;0;0;0;0;0;0;0;0;0;0;0.002479323
Cercozoa;turquoise2;Cercozoa_XXXX_sp._4;0;0.000272535;0;0.000736492;0.000438404;0;0;0;0;0.00051594;0;5.19E-05;0
Cercozoa;turquoise2;Cercozoa_XXXX_sp._5;0;0;0;0;0;0;0;0.001208693;0;0;0;0;0
Cercozoa;turquoise2;Cercozoa_XXXX_sp._6;0;0.001890713;0;0;0;0;0;0;0;0;0;0;0
Cercozoa;turquoise2;Cercozoa_XXXX_sp._7;0;0;0;0;0;0;0.000309933;0;0;0;0.000256148;0;0
Cercozoa;turquoise2;Cryothecomonas_aestivalis_1;0.002425604;0.013064659;0.000833073;0;0.003419553;0;0.000826489;0.004206251;0.006354772;0.003934046;0.009656762;0.004163694;0.05671451
Cercozoa;turquoise2;Cryothecomonas_aestivalis_2;0;0.000562104;0.001700857;0;0;0;0;0;0;0;0;0.000168623;0.00131714
Cercozoa;turquoise2;Cryothecomonas_aestivalis_3;0.000404267;0;0;0;0;0;0;0;0;0;0.001536885;0;0
Cercozoa;turquoise2;Cryothecomonas_aestivalis_4;0.000853453;0;0;0;0;0;0;0;0;0;0;0;0
Cercozoa;turquoise2;Discomonas_retusa;0;0;0;0;0;0;0;0;0;0;0;0;0
Cercozoa;turquoise2;Ebria_tripartita_1;0.412644582;0.001601145;0;0.000624902;0.016571679;0;0.000413244;0.001111997;0.000547825;0;0.003086578;0.000778261;0.009374939
Cercozoa;turquoise2;Ebria_tripartita_2;0;0;0;0;0;0;0;0.001232867;0.00021913;0;0;0;0
Cercozoa;turquoise2;Filosa-Imbricatea_XXX_sp.;0.000786075;0.047387068;0;0;0;0;0.001756289;0;0;0;0.006621414;0.002360724;0.001491468
Cercozoa;turquoise2;Filosa-Thecofilosea_XXX_sp._1;0;0;0;0;0.010083297;0;0;0;0;0;0;0;0
Cercozoa;turquoise2;Filosa-Thecofilosea_XXX_sp._2;0;0;0.000937207;0.000803446;0;0.000529621;0;0;0;0;0;0;0
Cercozoa;turquoise2;Filosa-Thecofilosea_XXX_sp._3;0;0;0;0;0;0;0;0;0;0;0;0;0
Cercozoa;turquoise2;LC104-lineage_X_sp._1;0;0;0;0;0.000438404;0;0.000309933;0.000483477;0;0;0;0;0
Cercozoa;turquoise2;LC104-lineage_X_sp._2;0;0;0;0;0;0;0;0;0;0.000386955;0.000422643;0;0
Cercozoa;turquoise2;Mataza-lineage_X_sp._1;0.002425604;0.003491858;0.006386893;0.000490995;0;0;0.018131102;0.000531825;0.00109565;0.001375841;0.000870902;0.000363188;0.001530207
Cercozoa;turquoise2;Mataza-lineage_X_sp._2;0;0;0;0;0;0;0.026137714;0.002248169;0;0;0;0;0
Cercozoa;turquoise2;Mataza-lineage_X_sp._3;0;0.002180282;0.000555382;0.000557949;0;7.57E-05;0;0;0.000255652;0.000107488;0;0;0
Cercozoa;turquoise2;Mataza-lineage_X_sp._4;0;0;0.00177028;0;0;0;0;0;0.000328695;0.000988886;0;0;0
Cercozoa;turquoise2;Mataza-lineage_X_sp._5;0;0.000289569;0;0.000133908;0;0.000567451;0;0;0;0.000537438;0.000128074;0;0
Cercozoa;turquoise2;Mataza-lineage_X_sp._6;0;0.000596171;0.001388455;0;0;0;0;0;0;0;0;0;0
Cercozoa;turquoise2;Mataza-lineage_X_sp._7;0;0;0;0;0;0.00022698;0.000309933;0;0;0.00017198;0.00029457;0;0
Cercozoa;turquoise2;Mataza-lineage_X_sp._8;0;0;0;0.000669538;0;0;0;0;0;0;0;0;0
Cercozoa;turquoise2;Minorisa-lineage_X_sp.;0;0.00044287;0;0;0;0;0;0;0;0.000644926;0;0;0
Cercozoa;turquoise2;Novel-clade-2_X_sp._1;0.000449186;0.000528037;0;0.000133908;0;0.00015132;0.000568211;0.000821911;0;0.000752413;0.00263832;0.000285362;0.001045964
Cercozoa;turquoise2;Novel-clade-2_X_sp._2;0.000112296;0.001107174;0;0;0;0;0;0;0;0;0.001754611;0.000920942;0.000368024
Cercozoa;turquoise2;Novel-clade-2_X_sp._3;0;0.000136268;0;0;0;0;0;0;0;0.000730916;0.000717213;0;0.000484243
Cercozoa;turquoise2;Novel-clade-2_X_sp._4;0;0.000238468;0;0;0;0;0;0;0;0.000816906;0.000448258;0;0.000290546
Cercozoa;turquoise2;Novel-clade-2_X_sp._5;0;0;0;0;0;0;0;0;0;0;0.000525102;0;0.000271176
Cercozoa;turquoise2;Novel-clade-2_X_sp._6;0;0;0;0;0;0;0.004545689;0;0;0;0;0;0
Cercozoa;turquoise2;Novel-clade-2_X_sp._7;0;0.000136268;0;0;0;0.000605281;0;0;0;0;0;0;0
Cercozoa;turquoise2;Novel-Clade-4_X_sp._1;0.000269512;0;0;0;0;0;0;0;0;0;0.003304303;0.000116739;0.000387394
Cercozoa;turquoise2;Novel-Clade-4_X_sp._2;0.000157215;0;0;0;0;0;0;0;0;0;0.000614754;0;0.000561722
Cercozoa;turquoise2;Novel-Clade-4_X_sp._3;0;0.00088574;0;0;0;0;0;0;0;0;0;0;0
Cercozoa;turquoise2;NPK2-lineage_X_sp._1;0;0;0;0;0;0.000340471;0;0.002634951;0;0;0;0;0
Cercozoa;turquoise2;NPK2-lineage_X_sp._2;0;0.000238468;0.000208268;0;0;0;0;0;0.000182608;0;0;0;0
Cercozoa;turquoise2;Paulinella_sp.;0.000449186;0.001209375;0;0.000401723;0;0;0;0;0;0.000472945;0.000345799;0.000376159;0.000561722
Cercozoa;turquoise2;Protaspa_obliqua;0;0;0;0;0;0;0;0;0;0;0;0;0
Cercozoa;turquoise2;Protaspa-lineage_X_sp._1;0.008624368;0.002026981;0;0.008012141;0.017360807;0.009041386;0;0;0.000730434;0.046456134;0.032620389;0.006057462;0.003176632
Cercozoa;turquoise2;Protaspa-lineage_X_sp._2;0;0.010254139;0.001457878;0.001963979;0.001928979;0.000680941;0;0;0.002410431;0.013908894;0.006634221;0.003281665;0.001510837
Cercozoa;turquoise2;Protaspa-lineage_X_sp._3;0.017113981;0.005433672;0;0;0;0;0;0;0;0;0.001447234;0.003061158;0.001704534
Cercozoa;turquoise2;Protaspa-lineage_X_sp._4;0.001145424;0.000970907;0.012148981;0.011895463;0.013239807;0;0;0;0;0;0;0;0
Cercozoa;turquoise2;Protaspa-lineage_X_sp._5;0;0;0;0.027272524;0;0;0;0;0;0;0;0;0
Cercozoa;turquoise2;Protaspa-lineage_X_sp._6;0.004851207;0.003815494;0;0;0;0;0;0;0.001351302;0.002794677;0;0;0.004978015
Cercozoa;turquoise2;Protaspa-lineage_X_sp._7;0;0;0.010413412;0;0;0;0;0;0;0;0;0;0
Cercozoa;turquoise2;Protaspa-lineage_X_sp._8;0;0.00562104;0.000728939;0.002053251;0;0;0;0;0;0;0;0;0.002421214
Cercozoa;turquoise2;Protaspa-lineage_X_sp._9;0;0;0;0;0;0;0;0.004085382;0.004163471;0;0;0;0
Cercozoa;turquoise2;Protaspa-lineage_X_sp._10;0;0;0;0;0;0.006809412;0;0;0;0;0;0;0
Cercozoa;turquoise2;Protaspa-lineage_X_sp._11;0;0.000272535;0.006282759;0;0;0;0;0;0;0;0;0;0.005442888
Cercozoa;turquoise2;Protaspa-lineage_X_sp._12;0;0.001567078;0;0.002722789;0;0;0;0;0.000547825;0.002794677;0.000678791;0;0
Cercozoa;turquoise2;Protaspa-lineage_X_sp._13;0;0;0;0;0;0.007452523;0;0;0;0;0;0;0
Cercozoa;turquoise2;Protaspa-lineage_X_sp._14;0;0.000255502;0.000937207;0;0.004296361;0;0;0;0.003104342;0;0;0;0
Cercozoa;turquoise2;Protaspa-lineage_X_sp._15;0;0;0.00301989;0;0;0;0;0;0;0;0;0;0.000832898
Cercozoa;turquoise2;Protaspa-lineage_X_sp._16;0.002133633;0.002606118;0;0;0;0;0;0;0;0;0;0.000285362;0.000891007
Cercozoa;turquoise2;Protaspa-lineage_X_sp._17;0;0;0;0;0.00210434;0.003404706;0;0;0;0;0;0;0
Cercozoa;turquoise2;Protaspa-lineage_X_sp._18;0;0.004803434;0;0.001026625;0;0;0;0;0;0;0;0;0
Cercozoa;turquoise2;Protaspa-lineage_X_sp._19;0;0;0;0;0;0;0;0;0;0;0;0;0
Cercozoa;turquoise2;Protaspa-lineage_X_sp._20;0;0;0;0;0.00315651;0;0;0;0;0;0;0.001245217;0
Cercozoa;turquoise2;Protaspa-lineage_X_sp._21;0.001122965;0;0;0;0;0;0;0.000652694;0.001570432;0;0;0;0
Cercozoa;turquoise2;Protaspa-lineage_X_sp._22;0;0;0.000520671;0;0.000350723;0;0;0;0;0;0.000512295;0.000155652;0
Cercozoa;turquoise2;Protaspa-lineage_X_sp._23;0;0;0;0.000200861;0;0.000605281;0.000878145;0;0;0;0;0;0
Cercozoa;turquoise2;Protaspa-lineage_X_sp._24;0;0;0;0;0;0.001588863;0;0;0;0;0;0;0
Cercozoa;turquoise2;Protaspa-lineage_X_sp._25;0;0;0;0;0.002367383;0;0;0;0;0.000838403;0;0;0
Cercozoa;turquoise2;Protaspa-lineage_X_sp._26;0;0;0;0.000915036;0;0;0;0;0;0;0;0;0
Cercozoa;turquoise2;Protaspa-lineage_X_sp._27;0;0;0;0;0;0;0;0;0;0;0.000281762;0;0
Cercozoa;turquoise2;Protaspa-lineage_X_sp._28;0.000269512;0;0;0;0;0;0;0;0;0.000150483;0.000435451;0;0
Cercozoa;turquoise2;Protaspa-lineage_X_sp._29;0;0;0;0;0;0;0;0;0;0;0;0.000168623;0
Cercozoa;turquoise2;Protaspa-lineage_X_sp._30;0;0;0;0.000580266;0;0;0;0;0;0;0;0;0
Cercozoa;turquoise2;Reckertia_filosa_1;0;0;0;0;0;0;0;0;0;0;0.00317623;0;0.000619831
Cercozoa;turquoise2;Reckertia_filosa_2;0;0;0;0;0;0;0;0;0;0;0;0;0
Cercozoa;turquoise2;Reckertia_filosa_3;0;0;0;0;0;0;0;0;0;0.000709418;0;0;0
Cercozoa;turquoise2;Rhogostoma_sp.;0;0;0.000451248;0;0;0;0;0;0;0;0;0;0
Cercozoa;turquoise2;Rhogostoma-lineage_X_sp._1;0;0;0;0;0;0;0;0;0;0;0;0.000441014;0
Cercozoa;turquoise2;Rhogostoma-lineage_X_sp._2;0;0;0;0;0;0;0;0;0;0.000816906;0;0.000103768;0
Cercozoa;turquoise2;TAGIRI1-lineage_X_sp._1;0;0;0;0;0.009907935;0.015585988;0;0;0;0;0;0;0
Cercozoa;turquoise2;TAGIRI1-lineage_X_sp._2;0;0;0;0.012520365;0.000526085;0;0;0;0;0;0;0;0
Cercozoa;turquoise2;TAGIRI1-lineage_X_sp._3;0.001055587;0.000357703;0.00985803;0.00303524;0;0;0;0;0;0;0.000589139;0;0
Cercozoa;turquoise2;TAGIRI1-lineage_X_sp._4;0;0;0;0.004954583;0;0;0;0;0;0;0;0;0
Cercozoa;turquoise2;TAGIRI1-lineage_X_sp._5;0;0;0;0;0;0;0;0;0;0;0.002663934;0;0
Cercozoa;turquoise2;TAGIRI1-lineage_X_sp._6;0;0.000970907;0;0.000245497;0.002630425;0;0;0;0;0;0.000627561;0;0
Cercozoa;turquoise2;TAGIRI1-lineage_X_sp._7;0;0;0;0;0;0;0;0;0;0.002085259;0.000845287;0;0
Cercozoa;turquoise2;TAGIRI1-lineage_X_sp._8;0;0.000306602;0.000347114;0;0;0.001210562;0;0;0;0;0;0;0
Cercozoa;turquoise2;TAGIRI1-lineage_X_sp._9;0.001100505;0;0;0;0;0;0;0;0;0;0;0;0
Cercozoa;turquoise2;TAGIRI1-lineage_X_sp._10;0;0;0.001353744;0;0;0;0;0;0;0;0;0;0
Cercozoa;turquoise2;TAGIRI1-lineage_X_sp._11;0;8.52E-05;0;0.00140603;0;0;0;0;0;0;0;0;0
Cercozoa;turquoise2;TAGIRI1-lineage_X_sp._12;0;0;0;0.000825764;0;0;0;0;0;0;0;0;0
Cercozoa;turquoise2;TAGIRI1-lineage_X_sp._13;0;0;0;0;0;0;0;0;0;0;0;0;0
Cercozoa;turquoise2;Thaumatomonadida_XX_sp.;0;0.000153301;0;0;0;0;0;0;0;0;0;0;0
Cercozoa;turquoise2;Thaumatomonas_sp.;0.000179674;0;0;0;0;0;0;0;0.000986085;0.001182363;0.000550717;0;0.000813528
Cercozoa;turquoise2;Vampyrellida_sp.;0;0.002078081;0;0;0;0;0.0027894;0;0;0;0;0;0
Cercozoa;turquoise2;Ventricleftida_XX_sp.;0;0;0;0;0;0;0;0;0;0.000945891;0;0;0
